INDEX VERSION 1.131+C:\Users\1258915\OneDrive - TCS COM PROD\1 - Información del Proyecto\CAPACITACIÓN JAVA\.metadata\.plugins\org.eclipse.jdt.core
2349671270.index
1721714348.index
136936140.index
2546076573.index
1312586118.index
2825787128.index
756006386.index
2033839043.index
565899265.index
2468382408.index
2936170451.index
2451833951.index
3075621779.index
2672315831.index
1295027826.index
3188099249.index
1929933281.index
1921432459.index
4266428024.index
